{
  "id": "66e11002-4369-4bb6-bc6a-3b70595d5312",
  "name": "Where is",
  "auto": true,
  "contexts": [],
  "responses": [
    {
      "resetContexts": false,
      "affectedContexts": [],
      "parameters": [
        {
          "id": "670131be-5246-4408-bef1-7967270f5021",
          "required": false,
          "dataType": "@Location",
          "name": "Location",
          "value": "$Location",
          "isList": false
        }
      ],
      "messages": [
        {
          "type": 0,
          "speech": "wait for $Location"
        }
      ],
      "defaultResponsePlatforms": {},
      "speech": []
    }
  ],
  "priority": 500000,
  "cortanaCommand": {
    "navigateOrService": "NAVIGATE",
    "target": ""
  },
  "webhookUsed": true,
  "webhookForSlotFilling": false,
  "lastUpdate": 1532369290,
  "fallbackIntent": false,
  "events": [],
  "userSays": [
    {
      "id": "ad3e2f8c-c9d1-4d11-9e29-bd81ebc43a15",
      "data": [
        {
          "text": "where is the "
        },
        {
          "text": "ECE Dept",
          "alias": "Location",
          "meta": "@Location",
          "userDefined": false
        },
        {
          "text": " ?"
        }
      ],
      "isTemplate": false,
      "count": 0,
      "updated": 1532365483,
      "isAuto": false
    },
    {
      "id": "365966fc-29bb-48c5-bb6e-3142d334b441",
      "data": [
        {
          "text": "where is the "
        },
        {
          "text": "ECE Department",
          "alias": "Location",
          "meta": "@Location",
          "userDefined": false
        },
        {
          "text": "?"
        }
      ],
      "isTemplate": false,
      "count": 0,
      "updated": 1532365483,
      "isAuto": false
    },
    {
      "id": "c7059197-e175-41e4-972b-bd0371bbf6da",
      "data": [
        {
          "text": "Help me find the "
        },
        {
          "text": "HMTS Department",
          "alias": "Location",
          "meta": "@Location",
          "userDefined": false
        }
      ],
      "isTemplate": false,
      "count": 0,
      "updated": 1532365141,
      "isAuto": false
    },
    {
      "id": "c5bc7da7-1adc-41e2-aa3f-26394c7531d4",
      "data": [
        {
          "text": "Where is "
        },
        {
          "text": "Electronics HOD",
          "alias": "Location",
          "meta": "@Location",
          "userDefined": false
        },
        {
          "text": "?"
        }
      ],
      "isTemplate": false,
      "count": 0,
      "updated": 1532365141,
      "isAuto": false
    },
    {
      "id": "fd432a1f-bd87-457e-8032-cfb1dba5043a",
      "data": [
        {
          "text": "where is "
        },
        {
          "text": "CHE FR",
          "alias": "Location",
          "meta": "@Location",
          "userDefined": false
        },
        {
          "text": "?"
        }
      ],
      "isTemplate": false,
      "count": 0,
      "updated": 1532365141,
      "isAuto": false
    },
    {
      "id": "346a003f-08f6-48db-95e9-92438a6b4174",
      "data": [
        {
          "text": "where is "
        },
        {
          "text": "workshop",
          "alias": "Location",
          "meta": "@Location",
          "userDefined": false
        },
        {
          "text": " class?"
        }
      ],
      "isTemplate": false,
      "count": 0,
      "updated": 1532365141,
      "isAuto": false
    },
    {
      "id": "c5368572-96d5-4d82-a9d0-99a4a5889505",
      "data": [
        {
          "text": "help me find "
        },
        {
          "text": "the Chemical Engineering faculty room",
          "alias": "Location",
          "meta": "@Location",
          "userDefined": false
        }
      ],
      "isTemplate": false,
      "count": 0,
      "updated": 1532365141,
      "isAuto": false
    },
    {
      "id": "87d64924-c9de-4950-a7fd-87a9b21b7245",
      "data": [
        {
          "text": "where is "
        },
        {
          "text": "computer science hod",
          "alias": "Location",
          "meta": "@Location",
          "userDefined": true
        },
        {
          "text": "?"
        }
      ],
      "isTemplate": false,
      "count": 0,
      "updated": 1532365141,
      "isAuto": false
    },
    {
      "id": "735b374f-ba06-471f-821e-2fb1075daddc",
      "data": [
        {
          "text": "Where is "
        },
        {
          "text": "CSE HOD",
          "alias": "Location",
          "meta": "@Location",
          "userDefined": false
        },
        {
          "text": " room?"
        }
      ],
      "isTemplate": false,
      "count": 0,
      "updated": 1532365141,
      "isAuto": false
    }
  ],
  "followUpIntents": [],
  "liveAgentHandoff": false,
  "endInteraction": false,
  "templates": []
}